===============================================================
Gobuster v3.0.1
by OJ Reeves (@TheColonial) & Christian Mehlmauer (@_FireFart_)
===============================================================
[+] Url:            http://10.10.10.218
[+] Threads:        10
[+] Wordlist:       /usr/share/wordlists/dirbuster/directory-list-2.3-medium.txt
[+] Status codes:   200,204,301,302,307,401,403
[+] User Agent:     gobuster/3.0.1
[+] Extensions:     txt
[+] Timeout:        10s
===============================================================
2021/03/26 19:37:06 Starting gobuster
===============================================================
/robots.txt (Status: 200)
===============================================================
2021/03/26 19:58:36 Finished
===============================================================
